👩‍👦 🦐 😺 Rを使用したスト​​レージの状態に関するレポート。並列コンピューティング、グラフ、xlsx、電子メールなど 🥙 🏒 💾
…
4.     ;

5.  xlsx ;

6.  ,    png;

7.  ,   ;

8.  .

1.   csv    

     VNX
# A tibble: 83 x 9
   Name  IP         cl      type   newA      newB      oldA      oldB      cntIP    
   <chr> <chr>      <chr>   <chr>  <chr>     <chr>     <chr>     <chr>     <chr>    
 1 XXX   10.***.**~ XclNam~ 5300-1 10.201.1~ 10.201.1~ 10.***.*~ 10.***.*~ 10.***.*~
 2 XXX   10.***.**~ XclNam~ 5300-1 10.201.1~ 10.201.1~ 10.***.*~ 10.***.*~ 10.***.*~
 3 XXX   10.***.**~ XclNam~ 5300-1 10.201.1~ 10.201.1~ 10.***.*~ 10.***.*~ 10.***.*~
 4 XXX   10.***.**~ XclNam~ 5300-1 10.201.1~ 10.201.1~ 10.***.*~ 10.***.*~ 10.***.*~
 5 XXX   10.***.**~ XclNam~ 5300-1 10.201.1~ 10.201.1~ 10.***.*~ 10.***.*~ 10.***.*~
 6 XXX   10.***.**~ XclNam~ 5300-1 10.201.1~ 10.201.1~ 10.***.*~ 10.***.*~ 10.***.*~
 7 XXX   10.***.**~ XclNam~ 5300-1 10.201.1~ 10.201.1~ 10.***.*~ 10.***.*~ 10.***.*~
 8 XXX   10.***.**~ XclNam~ 5300-1 10.201.1~ 10.201.1~ 10.***.*~ 10.***.*~ 10.***.*~
 9 XXX   10.***.**~ XclNam~ 5300-1 10.201.1~ 10.201.1~ 10.***.*~ 10.***.*~ 10.***.*~
10 XXX   10.***.**~ XclNam~ 5300-1 10.201.1~ 10.201.1~ 10.***.*~ 10.***.*~ 10.***.*~
# ... with 73 more rows
…
     data frame (  — cntName  cntIP):

# A tibble: 30 x 8
   Name  IP            cl       type  oldA         oldB         cntName cntIP       
   <chr> <chr>         <chr>    <chr> <chr>        <chr>        <chr>   <chr>       
 1 XXX   10.***.***.*~ XclNameX 5300~ 10.***.***.~ 10.***.***.~ newA    10.***.***.~
 2 XXX   10.***.***.*~ XclNameX 5300~ 10.***.***.~ 10.***.***.~ newA    10.***.***.~
 3 XXX   10.***.***.*~ XclNameX 5300~ 10.***.***.~ 10.***.***.~ newA    10.***.***.~
 4 XXX   10.***.***.*~ XclNameX 5300~ 10.***.***.~ 10.***.***.~ newA    10.***.***.~
 5 XXX   10.***.***.*~ XclNameX 5300~ 10.***.***.~ 10.***.***.~ newA    10.***.***.~
 6 XXX   10.***.***.*~ XclNameX 5300~ 10.***.***.~ 10.***.***.~ newA    10.***.***.~
 7 XXX   10.***.***.*~ XclNameX 5300~ 10.***.***.~ 10.***.***.~ newA    10.***.***.~
 8 XXX   10.***.***.*~ XclNameX 5300~ 10.***.***.~ 10.***.***.~ newA    10.***.***.~
 9 XXX   10.***.***.*~ XclNameX 5300~ 10.***.***.~ 10.***.***.~ newA    10.***.***.~
10 XXX   10.***.***.*~ XclNameX 5300~ 10.***.***.~ 10.***.***.~ newA    10.***.***.~
# ... with 20 more rows
…
     ,     ,  ,      ,  ,            -  .     errors.

  ,      data frame, ,     ip  ,       ip   (.. i = VNX_ip$cntIP),     (.. i = 1:nrow(VNX_ip)).      data frame             VNX_ip$cl[i]  VNX_ip$Name[i] .      ,          .

    data frame (  ,  tibble,      ),      . ..   ,   ,    .

  Data frame
> errors_df
# A tibble: 2,705 x 8
   cl      Storage    Date       Time    Disk  Error       eCode DateTime           
   <chr>   <chr>      <date>     <chr>   <chr> <chr>       <chr> <dttm>             
 1 XclNam~ XStorageN~ 2019-07-18 12:09:~ 0_1_3 Soft_SCSI_~ 801   2019-07-18 12:09:55
 2 XclNam~ XStorageN~ 2019-07-18 15:09:~ 0_1_3 Soft_SCSI_~ 801   2019-07-18 15:09:56
 3 XclNam~ XStorageN~ 2019-07-18 16:28:~ 0_1_3 Soft_SCSI_~ 801   2019-07-18 16:28:50
 4 XclNam~ XStorageN~ 2019-07-19 06:36:~ 0_1_6 Soft_SCSI_~ 801   2019-07-19 06:36:39
 5 XclNam~ XStorageN~ 2019-07-19 20:57:~ 0_1_6 Soft_Media~ 820   2019-07-19 20:57:35
 6 XclNam~ XStorageN~ 2019-07-22 11:00:~ 0_2_~ Soft_SCSI_~ 801   2019-07-22 11:00:43
 7 XclNam~ XStorageN~ 2019-07-22 11:00:~ 0_2_~ Soft_SCSI_~ 801   2019-07-22 11:00:44
 8 XclNam~ XStorageN~ 2019-07-22 12:02:~ 0_2_~ Soft_SCSI_~ 801   2019-07-22 12:02:31
 9 XclNam~ XStorageN~ 2019-07-23 23:29:~ 0_3_8 Soft_SCSI_~ 801   2019-07-23 23:29:49
10 XclNam~ XStorageN~ 2019-07-13 00:01:~ 0_3_9 Soft_SCSI_~ 801   2019-07-13 00:01:46
# ... with 2,695 more rows
…
          spread    fill = 0,        0.   ,    -    -   —       NA. 

             ,          .      dplyr,      . 

  ,    ,            (orderColname = quo(Soft_Media_Error)),  ,  ,     !!,   arrange(desc(!!orderColname)). 

> errorsBigPeriod
# A tibble: 77 x 7
   cl    Storage Disk  Hard_SCSI_Bus_E~ Recommend_Disk_~ Soft_Media_Error
   <chr> <chr>   <chr>            <dbl>            <dbl>            <dbl>
 1 XclN~ XStora~ 1_1_~                0                1               64
 2 XclN~ XStora~ 0_2_5                0                0               29
 3 XclN~ XStora~ 1_1_~                0                1               29
 4 XclN~ XStora~ 0_3_2                0                0               27
 5 XclN~ XStora~ 0_3_~                1                0               25
 6 XclN~ XStora~ 1_3_5                0                1               23
 7 XclN~ XStora~ 0_2_9                0                0               21
 8 XclN~ XStora~ 0_3_4                0                0               14
 9 XclN~ XStora~ 0_1_~                0                0               14
10 XclN~ XStora~ 1_0_1                0                0               12
# ... with 67 more rows, and 1 more variable: Soft_SCSI_Bus_Error <dbl>
…
