⛹🏼 🐄 🏆 Développer les colonnes imbriquées - listes utilisant le langage R (paquet tidyr et fonctions familiales unnest) 🐀 🕺 👩🏻
…
    user    ,   .     ,      (. tidy data)     ,       unnest_longer()   unnest_wider():

repos <- repos %>% unnest_longer(repo)
repos
#> # A tibble: 176 x 1
#>    repo             
#>    <list>           
#>  1 <named list [68]>
#>  2 <named list [68]>
#>  3 <named list [68]>
#>  4 <named list [68]>
#>  5 <named list [68]>
#>  6 <named list [68]>
#>  7 <named list [68]>
#>  8 <named list [68]>
#>  9 <named list [68]>
#> 10 <named list [68]>
#> # … with 166 more rows

    unnest_wider()  hoist() :

repos %>% hoist(repo, 
  login = c("owner", "login"), 
  name = "name",
  homepage = "homepage",
  watchers = "watchers_count"
)
#> # A tibble: 176 x 5
#>    login       name        homepage watchers repo             
#>    <chr>       <chr>       <chr>       <int> <list>           
#>  1 gaborcsardi after       <NA>            5 <named list [65]>
#>  2 gaborcsardi argufy      <NA>           19 <named list [65]>
#>  3 gaborcsardi ask         <NA>            5 <named list [65]>
#>  4 gaborcsardi baseimports <NA>            0 <named list [65]>
#>  5 gaborcsardi citest      <NA>            0 <named list [65]>
#>  6 gaborcsardi clisymbols  ""             18 <named list [65]>
#>  7 gaborcsardi cmaker      <NA>            0 <named list [65]>
#>  8 gaborcsardi cmark       <NA>            0 <named list [65]>
#>  9 gaborcsardi conditions  <NA>            0 <named list [65]>
#> 10 gaborcsardi crayon      <NA>           52 <named list [65]>
#> # … with 166 more rows

    c("owner", "login"):           owner.     ,     owner      unnest_wider()      :

repos %>% 
  hoist(repo, owner = "owner") %>% 
  unnest_wider(owner)
#> # A tibble: 176 x 18
#>    login     id avatar_url gravatar_id url   html_url followers_url
#>    <chr>  <int> <chr>      <chr>       <chr> <chr>    <chr>        
#>  1 gabo… 660288 https://a… ""          http… https:/… https://api.…
#>  2 gabo… 660288 https://a… ""          http… https:/… https://api.…
#>  3 gabo… 660288 https://a… ""          http… https:/… https://api.…
#>  4 gabo… 660288 https://a… ""          http… https:/… https://api.…
#>  5 gabo… 660288 https://a… ""          http… https:/… https://api.…
#>  6 gabo… 660288 https://a… ""          http… https:/… https://api.…
#>  7 gabo… 660288 https://a… ""          http… https:/… https://api.…
#>  8 gabo… 660288 https://a… ""          http… https:/… https://api.…
#>  9 gabo… 660288 https://a… ""          http… https:/… https://api.…
#> 10 gabo… 660288 https://a… ""          http… https:/… https://api.…
#> # … with 166 more rows, and 11 more variables: following_url <chr>,
#> #   gists_url <chr>, starred_url <chr>, subscriptions_url <chr>,
#> #   organizations_url <chr>, repos_url <chr>, events_url <chr>,
#> #   received_events_url <chr>, type <chr>, site_admin <lgl>, repo <list>

 ,        unnest_longer()  unnest_wider()    unnest_auto().              ,      . 

tibble(repo = gh_repos) %>% 
  unnest_auto(repo) %>% 
  unnest_auto(repo)
#> Using `unnest_longer(repo)`; no element has names
#> Using `unnest_wider(repo)`; elements have 68 names in common
#> # A tibble: 176 x 67
#>        id name  full_name owner private html_url description fork  url  
#>     <int> <chr> <chr>     <lis> <lgl>   <chr>    <chr>       <lgl> <chr>
#>  1 6.12e7 after gaborcsa… <nam… FALSE   https:/… Run Code i… FALSE http…
#>  2 4.05e7 argu… gaborcsa… <nam… FALSE   https:/… Declarativ… FALSE http…
#>  3 3.64e7 ask   gaborcsa… <nam… FALSE   https:/… Friendly C… FALSE http…
#>  4 3.49e7 base… gaborcsa… <nam… FALSE   https:/… Do we get … FALSE http…
#>  5 6.16e7 cite… gaborcsa… <nam… FALSE   https:/… Test R pac… TRUE  http…
#>  6 3.39e7 clis… gaborcsa… <nam… FALSE   https:/… Unicode sy… FALSE http…
#>  7 3.72e7 cmak… gaborcsa… <nam… FALSE   https:/… port of cm… TRUE  http…
#>  8 6.80e7 cmark gaborcsa… <nam… FALSE   https:/… CommonMark… TRUE  http…
#>  9 6.32e7 cond… gaborcsa… <nam… FALSE   https:/… <NA>        TRUE  http…
#> 10 2.43e7 cray… gaborcsa… <nam… FALSE   https:/… R package … FALSE http…
#> # … with 166 more rows, and 58 more variables: forks_url <chr>,
#> #   keys_url <chr>, collaborators_url <chr>, teams_url <chr>,
#> #   hooks_url <chr>, issue_events_url <chr>, events_url <chr>,
#> #   assignees_url <chr>, branches_url <chr>, tags_url <chr>,
#> #   blobs_url <chr>, git_tags_url <chr>, git_refs_url <chr>,
#> #   trees_url <chr>, statuses_url <chr>, languages_url <chr>,
#> #   stargazers_url <chr>, contributors_url <chr>, subscribers_url <chr>,
#> #   subscription_url <chr>, commits_url <chr>, git_commits_url <chr>,
#> #   comments_url <chr>, issue_comment_url <chr>, contents_url <chr>,
…
got_chars     gh_users:    ,           .  got_chars         ,        ,        :

chars <- tibble(char = got_chars)
chars
#> # A tibble: 30 x 1
#>    char             
#>    <list>           
#>  1 <named list [18]>
#>  2 <named list [18]>
#>  3 <named list [18]>
#>  4 <named list [18]>
#>  5 <named list [18]>
#>  6 <named list [18]>
#>  7 <named list [18]>
#>  8 <named list [18]>
#>  9 <named list [18]>
#> 10 <named list [18]>
#> # … with 20 more rows

chars2 <- chars %>% unnest_wider(char)
chars2
#> # A tibble: 30 x 18
#>    url      id name  gender culture born  died  alive titles aliases father
#>    <chr> <int> <chr> <chr>  <chr>   <chr> <chr> <lgl> <list> <list>  <chr> 
#>  1 http…  1022 Theo… Male   Ironbo… In 2… ""    TRUE  <chr … <chr [… ""    
#>  2 http…  1052 Tyri… Male   ""      In 2… ""    TRUE  <chr … <chr [… ""    
#>  3 http…  1074 Vict… Male   Ironbo… In 2… ""    TRUE  <chr … <chr [… ""    
#>  4 http…  1109 Will  Male   ""      ""    In 2… FALSE <chr … <chr [… ""    
#>  5 http…  1166 Areo… Male   Norvos… In 2… ""    TRUE  <chr … <chr [… ""    
#>  6 http…  1267 Chett Male   ""      At H… In 2… FALSE <chr … <chr [… ""    
#>  7 http…  1295 Cres… Male   ""      In 2… In 2… FALSE <chr … <chr [… ""    
#>  8 http…   130 Aria… Female Dornish In 2… ""    TRUE  <chr … <chr [… ""    
#>  9 http…  1303 Daen… Female Valyri… In 2… ""    TRUE  <chr … <chr [… ""    
#> 10 http…  1319 Davo… Male   Wester… In 2… ""    TRUE  <chr … <chr [… ""    
#> # … with 20 more rows, and 7 more variables: mother <chr>, spouse <chr>,
#> #   allegiances <list>, books <list>, povBooks <list>, tvSeries <list>,
#> #   playedBy <list>

 got_chars  ,  gh_users, ..    char     ,      — :

chars2 %>% select_if(is.list)
#> # A tibble: 30 x 7
#>    titles    aliases    allegiances books     povBooks  tvSeries  playedBy 
#>    <list>    <list>     <list>      <list>    <list>    <list>    <list>   
#>  1 <chr [3]> <chr [4]>  <chr [1]>   <chr [3]> <chr [2]> <chr [6]> <chr [1]>
#>  2 <chr [2]> <chr [11]> <chr [1]>   <chr [2]> <chr [4]> <chr [6]> <chr [1]>
#>  3 <chr [2]> <chr [1]>  <chr [1]>   <chr [3]> <chr [2]> <chr [1]> <chr [1]>
#>  4 <chr [1]> <chr [1]>  <???>       <chr [1]> <chr [1]> <chr [1]> <chr [1]>
#>  5 <chr [1]> <chr [1]>  <chr [1]>   <chr [3]> <chr [2]> <chr [2]> <chr [1]>
#>  6 <chr [1]> <chr [1]>  <???>       <chr [2]> <chr [1]> <chr [1]> <chr [1]>
#>  7 <chr [1]> <chr [1]>  <???>       <chr [2]> <chr [1]> <chr [1]> <chr [1]>
#>  8 <chr [1]> <chr [1]>  <chr [1]>   <chr [4]> <chr [1]> <chr [1]> <chr [1]>
#>  9 <chr [5]> <chr [11]> <chr [1]>   <chr [1]> <chr [4]> <chr [6]> <chr [1]>
#> 10 <chr [4]> <chr [5]>  <chr [2]>   <chr [1]> <chr [3]> <chr [5]> <chr [1]>
#> # … with 20 more rows

      . ,           ,    :

chars2 %>% 
  select(name, books, tvSeries) %>% 
  pivot_longer(c(books, tvSeries), names_to = "media", values_to = "value") %>% 
  unnest_longer(value)
#> # A tibble: 180 x 3
#>    name             media    value            
#>    <chr>            <chr>    <chr>            
#>  1 Theon Greyjoy    books    A Game of Thrones
#>  2 Theon Greyjoy    books    A Storm of Swords
#>  3 Theon Greyjoy    books    A Feast for Crows
#>  4 Theon Greyjoy    tvSeries Season 1         
#>  5 Theon Greyjoy    tvSeries Season 2         
#>  6 Theon Greyjoy    tvSeries Season 3         
#>  7 Theon Greyjoy    tvSeries Season 4         
#>  8 Theon Greyjoy    tvSeries Season 5         
#>  9 Theon Greyjoy    tvSeries Season 6         
#> 10 Tyrion Lannister books    A Feast for Crows
#> # … with 170 more rows

,  ,    ,       :

chars2 %>% 
  select(name, title = titles) %>% 
  unnest_longer(title)
#> # A tibble: 60 x 2
#>    name              title                                               
#>    <chr>             <chr>                                               
#>  1 Theon Greyjoy     Prince of Winterfell                                
#>  2 Theon Greyjoy     Captain of Sea Bitch                                
#>  3 Theon Greyjoy     Lord of the Iron Islands (by law of the green lands)
#>  4 Tyrion Lannister  Acting Hand of the King (former)                    
#>  5 Tyrion Lannister  Master of Coin (former)                             
#>  6 Victarion Greyjoy Lord Captain of the Iron Fleet                      
#>  7 Victarion Greyjoy Master of the Iron Victory                          
#>  8 Will              ""                                                  
#>  9 Areo Hotah        Captain of the Guard at Sunspear                    
#> 10 Chett             ""                                                  
#> # … with 50 more rows

( ,    ""   title,          got_chars:               title     0,     1,   .)

        unnest_auto().      ,      unnest_auto()     .   ,       unnest_auto()      ,     -    unnest_longer(),             unnest_wider(),            .

tibble(char = got_chars) %>% 
  unnest_auto(char) %>% 
  select(name, title = titles) %>% 
  unnest_auto(title)
#> Using `unnest_wider(char)`; elements have 18 names in common
#> Using `unnest_longer(title)`; no element has names
#> # A tibble: 60 x 2
#>    name              title                                               
#>    <chr>             <chr>                                               
#>  1 Theon Greyjoy     Prince of Winterfell                                
#>  2 Theon Greyjoy     Captain of Sea Bitch                                
#>  3 Theon Greyjoy     Lord of the Iron Islands (by law of the green lands)
#>  4 Tyrion Lannister  Acting Hand of the King (former)                    
#>  5 Tyrion Lannister  Master of Coin (former)                             
#>  6 Victarion Greyjoy Lord Captain of the Iron Fleet                      
#>  7 Victarion Greyjoy Master of the Iron Victory                          
#>  8 Will              ""                                                  
#>  9 Areo Hotah        Captain of the Guard at Sunspear                    
#> 10 Chett             ""                                                  
#> # … with 50 more rows
…
       —   .      ,           ,    ,      .     date_added        R.

discs <- tibble(disc = discog) %>% 
  unnest_wider(disc) %>% 
  mutate(date_added = as.POSIXct(strptime(date_added, "%Y-%m-%dT%H:%M:%S"))) 
discs
#> # A tibble: 155 x 5
#>    instance_id date_added          basic_information       id rating
#>          <int> <dttm>              <list>               <int>  <int>
#>  1   354823933 2019-02-16 17:48:59 <named list [11]>  7496378      0
#>  2   354092601 2019-02-13 14:13:11 <named list [11]>  4490852      0
#>  3   354091476 2019-02-13 14:07:23 <named list [11]>  9827276      0
#>  4   351244906 2019-02-02 11:39:58 <named list [11]>  9769203      0
#>  5   351244801 2019-02-02 11:39:37 <named list [11]>  7237138      0
#>  6   351052065 2019-02-01 20:40:53 <named list [11]> 13117042      0
#>  7   350315345 2019-01-29 15:48:37 <named list [11]>  7113575      0
#>  8   350315103 2019-01-29 15:47:22 <named list [11]> 10540713      0
#>  9   350314507 2019-01-29 15:44:08 <named list [11]> 11260950      0
#> 10   350314047 2019-01-29 15:41:35 <named list [11]> 11726853      0
#> # … with 145 more rows

       ,        ,          .       basic_information:

discs %>% unnest_wider(basic_information)
#> Column name `id` must not be duplicated.
#> Use .name_repair to specify repair.

    , ..   basic_information    basic_information.    ,  ,         names_repair = "unique":

discs %>% unnest_wider(basic_information, names_repair = "unique")
#> New names:
#> * id -> id...6
#> * id -> id...14
#> # A tibble: 155 x 15
#>    instance_id date_added          labels  year artists id...6 thumb title
#>          <int> <dttm>              <list> <int> <list>   <int> <chr> <chr>
#>  1   354823933 2019-02-16 17:48:59 <list…  2015 <list … 7.50e6 http… Demo 
#>  2   354092601 2019-02-13 14:13:11 <list…  2013 <list … 4.49e6 http… Obse…
#>  3   354091476 2019-02-13 14:07:23 <list…  2017 <list … 9.83e6 http… I    
#>  4   351244906 2019-02-02 11:39:58 <list…  2017 <list … 9.77e6 http… Oído…
#>  5   351244801 2019-02-02 11:39:37 <list…  2015 <list … 7.24e6 http… A Ca…
#>  6   351052065 2019-02-01 20:40:53 <list…  2019 <list … 1.31e7 http… Tash…
#>  7   350315345 2019-01-29 15:48:37 <list…  2014 <list … 7.11e6 http… Demo 
#>  8   350315103 2019-01-29 15:47:22 <list…  2015 <list … 1.05e7 http… Let …
#>  9   350314507 2019-01-29 15:44:08 <list…  2017 <list … 1.13e7 ""    Sub …
#> 10   350314047 2019-01-29 15:41:35 <list…  2017 <list … 1.17e7 http… Demo 
#> # … with 145 more rows, and 7 more variables: formats <list>,
#> #   cover_image <chr>, resource_url <chr>, master_id <int>,
#> #   master_url <chr>, id...14 <int>, rating <int>

  ,  basic_information   id      ,      :

discs %>% 
  select(-id) %>% 
  unnest_wider(basic_information)
#> # A tibble: 155 x 14
#>    instance_id date_added          labels  year artists     id thumb title
#>          <int> <dttm>              <list> <int> <list>   <int> <chr> <chr>
#>  1   354823933 2019-02-16 17:48:59 <list…  2015 <list … 7.50e6 http… Demo 
#>  2   354092601 2019-02-13 14:13:11 <list…  2013 <list … 4.49e6 http… Obse…
#>  3   354091476 2019-02-13 14:07:23 <list…  2017 <list … 9.83e6 http… I    
#>  4   351244906 2019-02-02 11:39:58 <list…  2017 <list … 9.77e6 http… Oído…
#>  5   351244801 2019-02-02 11:39:37 <list…  2015 <list … 7.24e6 http… A Ca…
#>  6   351052065 2019-02-01 20:40:53 <list…  2019 <list … 1.31e7 http… Tash…
#>  7   350315345 2019-01-29 15:48:37 <list…  2014 <list … 7.11e6 http… Demo 
#>  8   350315103 2019-01-29 15:47:22 <list…  2015 <list … 1.05e7 http… Let …
#>  9   350314507 2019-01-29 15:44:08 <list…  2017 <list … 1.13e7 ""    Sub …
#> 10   350314047 2019-01-29 15:41:35 <list…  2017 <list … 1.17e7 http… Demo 
#> # … with 145 more rows, and 6 more variables: formats <list>,
#> #   cover_image <chr>, resource_url <chr>, master_id <int>,
#> #   master_url <chr>, rating <int>

  ,     hoist():

discs %>% 
  hoist(basic_information,
    title = "title",
    year = "year",
    label = list("labels", 1, "name"),
    artist = list("artists", 1, "name")
  )
#> # A tibble: 155 x 9
#>    instance_id date_added          title  year label artist
#>          <int> <dttm>              <chr> <int> <chr> <chr> 
#>  1   354823933 2019-02-16 17:48:59 Demo   2015 Tobi… Mollot
#>  2   354092601 2019-02-13 14:13:11 Obse…  2013 La V… Una B…
#>  3   354091476 2019-02-13 14:07:23 I      2017 La V… S.H.I…
#>  4   351244906 2019-02-02 11:39:58 Oído…  2017 La V… Rata …
#>  5   351244801 2019-02-02 11:39:37 A Ca…  2015 Kato… Ivy (…
#>  6   351052065 2019-02-01 20:40:53 Tash…  2019 High… Tashme
#>  7   350315345 2019-01-29 15:48:37 Demo   2014 Mind… Desgr…
#>  8   350315103 2019-01-29 15:47:22 Let …  2015 Not … Phant…
#>  9   350314507 2019-01-29 15:44:08 Sub …  2017 Not … Sub S…
#> 10   350314047 2019-01-29 15:41:35 Demo   2017 Pres… Small…
#> # … with 145 more rows, and 3 more variables: basic_information <list>,
#> #   id <int>, rating <int>

          ,    .

           :

discs %>% 
  hoist(basic_information, artist = "artists") %>% 
  select(disc_id = id, artist) %>% 
  unnest_longer(artist) %>% 
  unnest_wider(artist)
#> # A tibble: 167 x 8
#>     disc_id join  name        anv   tracks role  resource_url            id
#>       <int> <chr> <chr>       <chr> <chr>  <chr> <chr>                <int>
#>  1  7496378 ""    Mollot      ""    ""     ""    https://api.discog… 4.62e6
#>  2  4490852 ""    Una Bèstia… ""    ""     ""    https://api.discog… 3.19e6
#>  3  9827276 ""    S.H.I.T. (… ""    ""     ""    https://api.discog… 2.77e6
#>  4  9769203 ""    Rata Negra  ""    ""     ""    https://api.discog… 4.28e6
#>  5  7237138 ""    Ivy (18)    ""    ""     ""    https://api.discog… 3.60e6
#>  6 13117042 ""    Tashme      ""    ""     ""    https://api.discog… 5.21e6
#>  7  7113575 ""    Desgraciad… ""    ""     ""    https://api.discog… 4.45e6
#>  8 10540713 ""    Phantom He… ""    ""     ""    https://api.discog… 4.27e6
#>  9 11260950 ""    Sub Space … ""    ""     ""    https://api.discog… 5.69e6
#> 10 11726853 ""    Small Man … ""    ""     ""    https://api.discog… 6.37e6
#> # … with 157 more rows

discs %>% 
  hoist(basic_information, format = "formats") %>% 
  select(disc_id = id, format) %>% 
  unnest_longer(format) %>% 
  unnest_wider(format) %>% 
  unnest_longer(descriptions)
#> # A tibble: 280 x 5
#>     disc_id descriptions text  name     qty  
#>       <int> <chr>        <chr> <chr>    <chr>
#>  1  7496378 Numbered     Black Cassette 1    
#>  2  4490852 LP           <NA>  Vinyl    1    
#>  3  9827276 "7\""        <NA>  Vinyl    1    
#>  4  9827276 45 RPM       <NA>  Vinyl    1    
#>  5  9827276 EP           <NA>  Vinyl    1    
#>  6  9769203 LP           <NA>  Vinyl    1    
#>  7  9769203 Album        <NA>  Vinyl    1    
#>  8  7237138 "7\""        <NA>  Vinyl    1    
#>  9  7237138 45 RPM       <NA>  Vinyl    1    
#> 10 13117042 "7\""        <NA>  Vinyl    1    
#> # … with 270 more rows
…
